^C:\USERS\WINDOWSRAIDERS\DOCUMENTS\BITBUCKET\TOWERDEFENSE-C\SRC\CONTAINER\BOTTOMPADDING.CPP|C:\USERS\WINDOWSRAIDERS\DOCUMENTS\BITBUCKET\TOWERDEFENSE-C\SRC\CONTAINER\CASE\BATTLEFIELDCASE.CPP|C:\USERS\WINDOWSRAIDERS\DOCUMENTS\BITBUCKET\TOWERDEFENSE-C\SRC\CONTAINER\CASE\CASE.CPP|C:\USERS\WINDOWSRAIDERS\DOCUMENTS\BITBUCKET\TOWERDEFENSE-C\SRC\CONTAINER\CASE\RUNVAGUECASE.CPP|C:\USERS\WINDOWSRAIDERS\DOCUMENTS\BITBUCKET\TOWERDEFENSE-C\SRC\CONTAINER\CASE\SELECTIONTOWERCASE.CPP|C:\USERS\WINDOWSRAIDERS\DOCUMENTS\BITBUCKET\TOWERDEFENSE-C\SRC\CONTAINER\CONTAINER.CPP|C:\USERS\WINDOWSRAIDERS\DOCUMENTS\BITBUCKET\TOWERDEFENSE-C\SRC\CONTAINER\GAMEFIELD.CPP|C:\USERS\WINDOWSRAIDERS\DOCUMENTS\BITBUCKET\TOWERDEFENSE-C\SRC\CONTAINER\TOPPADDING.CPP|C:\USERS\WINDOWSRAIDERS\DOCUMENTS\BITBUCKET\TOWERDEFENSE-C\SRC\ENTITY\ASTEROID\ASTEROID.CPP|C:\USERS\WINDOWSRAIDERS\DOCUMENTS\BITBUCKET\TOWERDEFENSE-C\SRC\ENTITY\ASTEROID\ASTEROIDARMORED.CPP|C:\USERS\WINDOWSRAIDERS\DOCUMENTS\BITBUCKET\TOWERDEFENSE-C\SRC\ENTITY\ASTEROID\ASTEROIDBASIC.CPP|C:\USERS\WINDOWSRAIDERS\DOCUMENTS\BITBUCKET\TOWERDEFENSE-C\SRC\ENTITY\ASTEROID\ASTEROIDDUST.CPP|C:\USERS\WINDOWSRAIDERS\DOCUMENTS\BITBUCKET\TOWERDEFENSE-C\SRC\ENTITY\ENTITY.CPP|C:\USERS\WINDOWSRAIDERS\DOCUMENTS\BITBUCKET\TOWERDEFENSE-C\SRC\ENTITY\MISSILE\MISSILE.CPP|C:\USERS\WINDOWSRAIDERS\DOCUMENTS\BITBUCKET\TOWERDEFENSE-C\SRC\ENTITY\MISSILE\MISSILEBASIC.CPP|C:\USERS\WINDOWSRAIDERS\DOCUMENTS\BITBUCKET\TOWERDEFENSE-C\SRC\ENTITY\MISSILE\MISSILEPOWERFUL.CPP|C:\USERS\WINDOWSRAIDERS\DOCUMENTS\BITBUCKET\TOWERDEFENSE-C\SRC\ENTITY\MISSILE\MISSILESWIFT.CPP|C:\USERS\WINDOWSRAIDERS\DOCUMENTS\BITBUCKET\TOWERDEFENSE-C\SRC\ENTITY\VAISSEAU\VAISSEAU.CPP|C:\USERS\WINDOWSRAIDERS\DOCUMENTS\BITBUCKET\TOWERDEFENSE-C\SRC\ENTITY\VAISSEAU\VAISSEAUBASIC.CPP|C:\USERS\WINDOWSRAIDERS\DOCUMENTS\BITBUCKET\TOWERDEFENSE-C\SRC\ENTITY\VAISSEAU\VAISSEAUPOWERFUL.CPP|C:\USERS\WINDOWSRAIDERS\DOCUMENTS\BITBUCKET\TOWERDEFENSE-C\SRC\ENTITY\VAISSEAU\VAISSEAUSWIFT.CPP|C:\USERS\WINDOWSRAIDERS\DOCUMENTS\BITBUCKET\TOWERDEFENSE-C\SRC\MAIN.CPP|C:\USERS\WINDOWSRAIDERS\DOCUMENTS\BITBUCKET\TOWERDEFENSE-C\SRC\MYCONTROLENGINE.CPP|C:\USERS\WINDOWSRAIDERS\DOCUMENTS\BITBUCKET\TOWERDEFENSE-C\SRC\MYGAMEENGINE.CPP|C:\USERS\WINDOWSRAIDERS\DOCUMENTS\BITBUCKET\TOWERDEFENSE-C\SRC\MYGRAPHICENGINE.CPP
C:\USERS\WINDOWSRAIDERS\DOCUMENTS\BITBUCKET\TOWERDEFENSE-C\DEBUG\VC141.PDB
C:\USERS\WINDOWSRAIDERS\DOCUMENTS\BITBUCKET\TOWERDEFENSE-C\DEBUG\VC141.IDB
C:\USERS\WINDOWSRAIDERS\DOCUMENTS\BITBUCKET\TOWERDEFENSE-C\DEBUG\CONTAINER.OBJ
C:\USERS\WINDOWSRAIDERS\DOCUMENTS\BITBUCKET\TOWERDEFENSE-C\DEBUG\GAMEFIELD.OBJ
C:\USERS\WINDOWSRAIDERS\DOCUMENTS\BITBUCKET\TOWERDEFENSE-C\DEBUG\TOPPADDING.OBJ
C:\USERS\WINDOWSRAIDERS\DOCUMENTS\BITBUCKET\TOWERDEFENSE-C\DEBUG\ASTEROID.OBJ
C:\USERS\WINDOWSRAIDERS\DOCUMENTS\BITBUCKET\TOWERDEFENSE-C\DEBUG\ASTEROIDARMORED.OBJ
C:\USERS\WINDOWSRAIDERS\DOCUMENTS\BITBUCKET\TOWERDEFENSE-C\DEBUG\ASTEROIDBASIC.OBJ
C:\USERS\WINDOWSRAIDERS\DOCUMENTS\BITBUCKET\TOWERDEFENSE-C\DEBUG\ASTEROIDDUST.OBJ
C:\USERS\WINDOWSRAIDERS\DOCUMENTS\BITBUCKET\TOWERDEFENSE-C\DEBUG\ENTITY.OBJ
C:\USERS\WINDOWSRAIDERS\DOCUMENTS\BITBUCKET\TOWERDEFENSE-C\DEBUG\MISSILE.OBJ
C:\USERS\WINDOWSRAIDERS\DOCUMENTS\BITBUCKET\TOWERDEFENSE-C\DEBUG\MISSILEBASIC.OBJ
C:\USERS\WINDOWSRAIDERS\DOCUMENTS\BITBUCKET\TOWERDEFENSE-C\DEBUG\MISSILEPOWERFUL.OBJ
C:\USERS\WINDOWSRAIDERS\DOCUMENTS\BITBUCKET\TOWERDEFENSE-C\DEBUG\MISSILESWIFT.OBJ
C:\USERS\WINDOWSRAIDERS\DOCUMENTS\BITBUCKET\TOWERDEFENSE-C\DEBUG\VAISSEAU.OBJ
C:\USERS\WINDOWSRAIDERS\DOCUMENTS\BITBUCKET\TOWERDEFENSE-C\DEBUG\VAISSEAUBASIC.OBJ
C:\USERS\WINDOWSRAIDERS\DOCUMENTS\BITBUCKET\TOWERDEFENSE-C\DEBUG\VAISSEAUPOWERFUL.OBJ
C:\USERS\WINDOWSRAIDERS\DOCUMENTS\BITBUCKET\TOWERDEFENSE-C\DEBUG\VAISSEAUSWIFT.OBJ
C:\USERS\WINDOWSRAIDERS\DOCUMENTS\BITBUCKET\TOWERDEFENSE-C\DEBUG\MAIN.OBJ
C:\USERS\WINDOWSRAIDERS\DOCUMENTS\BITBUCKET\TOWERDEFENSE-C\DEBUG\MYCONTROLENGINE.OBJ
C:\USERS\WINDOWSRAIDERS\DOCUMENTS\BITBUCKET\TOWERDEFENSE-C\DEBUG\MYGAMEENGINE.OBJ
C:\USERS\WINDOWSRAIDERS\DOCUMENTS\BITBUCKET\TOWERDEFENSE-C\DEBUG\MYGRAPHICENGINE.OBJ
C:\USERS\WINDOWSRAIDERS\DOCUMENTS\BITBUCKET\TOWERDEFENSE-C\DEBUG\BOTTOMPADDING.OBJ
C:\USERS\WINDOWSRAIDERS\DOCUMENTS\BITBUCKET\TOWERDEFENSE-C\DEBUG\BATTLEFIELDCASE.OBJ
C:\USERS\WINDOWSRAIDERS\DOCUMENTS\BITBUCKET\TOWERDEFENSE-C\DEBUG\CASE.OBJ
C:\USERS\WINDOWSRAIDERS\DOCUMENTS\BITBUCKET\TOWERDEFENSE-C\DEBUG\RUNVAGUECASE.OBJ
C:\USERS\WINDOWSRAIDERS\DOCUMENTS\BITBUCKET\TOWERDEFENSE-C\DEBUG\SELECTIONTOWERCASE.OBJ
^C:\USERS\WINDOWSRAIDERS\DOCUMENTS\BITBUCKET\TOWERDEFENSE-C\SRC\CONTAINER\BOTTOMPADDING.CPP
C:\USERS\WINDOWSRAIDERS\DOCUMENTS\BITBUCKET\TOWERDEFENSE-C\DEBUG\VC141.PDB
^C:\USERS\WINDOWSRAIDERS\DOCUMENTS\BITBUCKET\TOWERDEFENSE-C\SRC\CONTAINER\CASE\BATTLEFIELDCASE.CPP
C:\USERS\WINDOWSRAIDERS\DOCUMENTS\BITBUCKET\TOWERDEFENSE-C\DEBUG\VC141.PDB
^C:\USERS\WINDOWSRAIDERS\DOCUMENTS\BITBUCKET\TOWERDEFENSE-C\SRC\CONTAINER\CASE\CASE.CPP
C:\USERS\WINDOWSRAIDERS\DOCUMENTS\BITBUCKET\TOWERDEFENSE-C\DEBUG\VC141.PDB
^C:\USERS\WINDOWSRAIDERS\DOCUMENTS\BITBUCKET\TOWERDEFENSE-C\SRC\CONTAINER\CASE\RUNVAGUECASE.CPP
C:\USERS\WINDOWSRAIDERS\DOCUMENTS\BITBUCKET\TOWERDEFENSE-C\DEBUG\VC141.PDB
^C:\USERS\WINDOWSRAIDERS\DOCUMENTS\BITBUCKET\TOWERDEFENSE-C\SRC\CONTAINER\CASE\SELECTIONTOWERCASE.CPP
C:\USERS\WINDOWSRAIDERS\DOCUMENTS\BITBUCKET\TOWERDEFENSE-C\DEBUG\VC141.PDB
^C:\USERS\WINDOWSRAIDERS\DOCUMENTS\BITBUCKET\TOWERDEFENSE-C\SRC\CONTAINER\CONTAINER.CPP
C:\USERS\WINDOWSRAIDERS\DOCUMENTS\BITBUCKET\TOWERDEFENSE-C\DEBUG\VC141.PDB
^C:\USERS\WINDOWSRAIDERS\DOCUMENTS\BITBUCKET\TOWERDEFENSE-C\SRC\CONTAINER\GAMEFIELD.CPP
C:\USERS\WINDOWSRAIDERS\DOCUMENTS\BITBUCKET\TOWERDEFENSE-C\DEBUG\VC141.PDB
^C:\USERS\WINDOWSRAIDERS\DOCUMENTS\BITBUCKET\TOWERDEFENSE-C\SRC\CONTAINER\TOPPADDING.CPP
C:\USERS\WINDOWSRAIDERS\DOCUMENTS\BITBUCKET\TOWERDEFENSE-C\DEBUG\VC141.PDB
^C:\USERS\WINDOWSRAIDERS\DOCUMENTS\BITBUCKET\TOWERDEFENSE-C\SRC\ENTITY\ASTEROID\ASTEROID.CPP
C:\USERS\WINDOWSRAIDERS\DOCUMENTS\BITBUCKET\TOWERDEFENSE-C\DEBUG\VC141.PDB
^C:\USERS\WINDOWSRAIDERS\DOCUMENTS\BITBUCKET\TOWERDEFENSE-C\SRC\ENTITY\ASTEROID\ASTEROIDARMORED.CPP
C:\USERS\WINDOWSRAIDERS\DOCUMENTS\BITBUCKET\TOWERDEFENSE-C\DEBUG\VC141.PDB
^C:\USERS\WINDOWSRAIDERS\DOCUMENTS\BITBUCKET\TOWERDEFENSE-C\SRC\ENTITY\ASTEROID\ASTEROIDBASIC.CPP
C:\USERS\WINDOWSRAIDERS\DOCUMENTS\BITBUCKET\TOWERDEFENSE-C\DEBUG\VC141.PDB
^C:\USERS\WINDOWSRAIDERS\DOCUMENTS\BITBUCKET\TOWERDEFENSE-C\SRC\ENTITY\ASTEROID\ASTEROIDDUST.CPP
C:\USERS\WINDOWSRAIDERS\DOCUMENTS\BITBUCKET\TOWERDEFENSE-C\DEBUG\VC141.PDB
^C:\USERS\WINDOWSRAIDERS\DOCUMENTS\BITBUCKET\TOWERDEFENSE-C\SRC\ENTITY\ENTITY.CPP
C:\USERS\WINDOWSRAIDERS\DOCUMENTS\BITBUCKET\TOWERDEFENSE-C\DEBUG\VC141.PDB
^C:\USERS\WINDOWSRAIDERS\DOCUMENTS\BITBUCKET\TOWERDEFENSE-C\SRC\ENTITY\MISSILE\MISSILE.CPP
C:\USERS\WINDOWSRAIDERS\DOCUMENTS\BITBUCKET\TOWERDEFENSE-C\DEBUG\VC141.PDB
^C:\USERS\WINDOWSRAIDERS\DOCUMENTS\BITBUCKET\TOWERDEFENSE-C\SRC\ENTITY\MISSILE\MISSILEBASIC.CPP
C:\USERS\WINDOWSRAIDERS\DOCUMENTS\BITBUCKET\TOWERDEFENSE-C\DEBUG\VC141.PDB
^C:\USERS\WINDOWSRAIDERS\DOCUMENTS\BITBUCKET\TOWERDEFENSE-C\SRC\ENTITY\MISSILE\MISSILEPOWERFUL.CPP
C:\USERS\WINDOWSRAIDERS\DOCUMENTS\BITBUCKET\TOWERDEFENSE-C\DEBUG\VC141.PDB
^C:\USERS\WINDOWSRAIDERS\DOCUMENTS\BITBUCKET\TOWERDEFENSE-C\SRC\ENTITY\MISSILE\MISSILESWIFT.CPP
C:\USERS\WINDOWSRAIDERS\DOCUMENTS\BITBUCKET\TOWERDEFENSE-C\DEBUG\VC141.PDB
^C:\USERS\WINDOWSRAIDERS\DOCUMENTS\BITBUCKET\TOWERDEFENSE-C\SRC\ENTITY\VAISSEAU\VAISSEAU.CPP
C:\USERS\WINDOWSRAIDERS\DOCUMENTS\BITBUCKET\TOWERDEFENSE-C\DEBUG\VC141.PDB
^C:\USERS\WINDOWSRAIDERS\DOCUMENTS\BITBUCKET\TOWERDEFENSE-C\SRC\ENTITY\VAISSEAU\VAISSEAUBASIC.CPP
C:\USERS\WINDOWSRAIDERS\DOCUMENTS\BITBUCKET\TOWERDEFENSE-C\DEBUG\VC141.PDB
^C:\USERS\WINDOWSRAIDERS\DOCUMENTS\BITBUCKET\TOWERDEFENSE-C\SRC\ENTITY\VAISSEAU\VAISSEAUPOWERFUL.CPP
C:\USERS\WINDOWSRAIDERS\DOCUMENTS\BITBUCKET\TOWERDEFENSE-C\DEBUG\VC141.PDB
^C:\USERS\WINDOWSRAIDERS\DOCUMENTS\BITBUCKET\TOWERDEFENSE-C\SRC\ENTITY\VAISSEAU\VAISSEAUSWIFT.CPP
C:\USERS\WINDOWSRAIDERS\DOCUMENTS\BITBUCKET\TOWERDEFENSE-C\DEBUG\VC141.PDB
^C:\USERS\WINDOWSRAIDERS\DOCUMENTS\BITBUCKET\TOWERDEFENSE-C\SRC\MAIN.CPP
C:\USERS\WINDOWSRAIDERS\DOCUMENTS\BITBUCKET\TOWERDEFENSE-C\DEBUG\VC141.PDB
^C:\USERS\WINDOWSRAIDERS\DOCUMENTS\BITBUCKET\TOWERDEFENSE-C\SRC\MYCONTROLENGINE.CPP
C:\USERS\WINDOWSRAIDERS\DOCUMENTS\BITBUCKET\TOWERDEFENSE-C\DEBUG\VC141.PDB
^C:\USERS\WINDOWSRAIDERS\DOCUMENTS\BITBUCKET\TOWERDEFENSE-C\SRC\MYGAMEENGINE.CPP
C:\USERS\WINDOWSRAIDERS\DOCUMENTS\BITBUCKET\TOWERDEFENSE-C\DEBUG\VC141.PDB
^C:\USERS\WINDOWSRAIDERS\DOCUMENTS\BITBUCKET\TOWERDEFENSE-C\SRC\MYGRAPHICENGINE.CPP
C:\USERS\WINDOWSRAIDERS\DOCUMENTS\BITBUCKET\TOWERDEFENSE-C\DEBUG\VC141.PDB
