011015113
010016111115
011013015112114
011013015112114110116210216
013112114211212213214215310311312313314315316
010016110116111115210211212216215214310311312313314315316
013113111115213211215313315311413411415513511515613615611713715711813811815
010011012013014015016210211212213214215216310311312313314315316411412413414415510513516
010012014016111113115210212214216311313115410412414416511513515610612614616711713715810812814816
013112114211212213214215310311312313314315316413512514611612613614615710711712713714715716910911912913914915916
011015113322324421423425
010016111115520521522523524525526
011013015112114322324421423425520521522523524525526
011013015112114110116210206322324421423425520521522523524525526622624621623625820823826
013112114211212213214215310311312313314315316313412414511512513514515610611612613614615616
010016110116111115210211212216215214310311312313314315316422424521523525622624721723725822824921923925
013113111115213211215313315311413411415513511515613615611620622624626620622624626713715711813811815821823825920922923924926
010011012013014015016210211212213214215216310311312313314315316411412413414415510513516622624721723725822824921923925
010012014016111113115210212214216311313410412414416511513515610612614616621623625711713715720722724726810812814816820822824826
013112114211212213214215310311312313314315316413512514611612613614615710711712713714715716821822823824825920921922923924925926
033512514
033512514913915911
032034512514
033431435910913916
030036332334931935910916
033232233234430431432433434435436
033330331332333334335336630631632633634635636
030031032033034035036230231232233234235236510511512513514515516920921922923924925926
030031032033034035036230231232233234235236510511512513514515516610611612613614615616820821822823824825826920921922923924925926
030031032033034035036130131132133134135136230231232233234235236330331332333334335336510511512513514515516610611612613614615616820821822823824825826920921922923924925926